Report
…
price_data <- spread_data %>% dplyr::select(date, value = Crack_Spread) %>% 
  dplyr::mutate(series = "Crack_Spread", volume = 0) %>% 
  bind_rows(price_data) %>% 
  add_ret_metrics()

EIA_Data %>% pivot_wider(names_from = series, id_cols = date, values_from = value) %>% 
  dplyr::arrange(desc(date))

# A tibble: 3,365 × 11
   date       US_Crude_Inventory US_Crude_Prod Lower48NGStorage US_Crude_NI
   <date>                  <dbl>         <dbl>            <dbl>       <dbl>
 1 2024-08-16            1658445            NA               NA        2607
 2 2024-08-09            1663659            NA             3264        2529
 3 2024-08-02            1666068            NA             3270        2586
 4 2024-07-26            1664122            NA             3249        2034
 5 2024-07-19            1665878            NA             3231        2685
 6 2024-07-12            1669754            NA             3209        3073
 7 2024-07-05            1658697            NA             3199        2761
 8 2024-06-28            1655662            NA             3134        2146
 9 2024-06-21            1668222            NA             3102        2701
10 2024-06-14            1658780            NA             3045        2636
# ℹ 3,355 more rows
# ℹ 6 more variables: US_Petrol_Products_NI <dbl>,
#   US_Gasoline_Production <dbl>, US_Gasoline_Stocks_Blended <dbl>,
#   US_RBOB_Stocks_Unblended <dbl>, US_Conventional_Stocks_Unblended <dbl>,
#   Pct_Operable_Utilization <dbl>
…
