Report
…
price_data <- spread_data %>% dplyr::select(date, value = Crack_Spread) %>% 
  dplyr::mutate(series = "Crack_Spread", volume = 0) %>% 
  bind_rows(price_data) %>% 
  add_ret_metrics()

Warning: There was 1 warning in `dplyr::mutate()`.
ℹ In argument: `ret_log = log(value/lag(value))`.
ℹ In group 5: `series = "WTI"`.
Caused by warning in `log()`:
! NaNs produced

EIA_Data %>% pivot_wider(names_from = series, id_cols = date, values_from = value) %>% 
  dplyr::arrange(desc(date))

# A tibble: 3,365 × 11
   date       US_Crude_Inventory US_Crude_Prod Lower48NGStorage US_Crude_NI
   <date>                  <dbl>         <dbl>            <dbl>       <dbl>
 1 2024-08-16            1658445            NA             3299        2607
 2 2024-08-09            1663659            NA             3264        2529
 3 2024-08-02            1666068            NA             3270        2586
 4 2024-07-26            1664122            NA             3249        2034
 5 2024-07-19            1665878            NA             3231        2685
 6 2024-07-12            1669754            NA             3209        3073
 7 2024-07-05            1658697            NA             3199        2761
 8 2024-06-28            1655662            NA             3134        2146
 9 2024-06-21            1668222            NA             3102        2701
10 2024-06-14            1658780            NA             3045        2636
# ℹ 3,355 more rows
# ℹ 6 more variables: US_Petrol_Products_NI <dbl>,
#   US_Gasoline_Production <dbl>, US_Gasoline_Stocks_Blended <dbl>,
#   US_RBOB_Stocks_Unblended <dbl>, US_Conventional_Stocks_Unblended <dbl>,
#   Pct_Operable_Utilization <dbl>
…
uninterpolated_data

# A tibble: 76 × 13
   B_Miles_Driven Mining_Production_Index Truck_Tonnage_Index
            <dbl>                   <dbl>               <dbl>
 1           228.                    107.                112.
 2           271.                    109.                112.
 3           275.                    110.                112.
 4           284.                    111.                113 
 5           283.                    113.                114 
 6           291                     114.                113.
 7           285                     117.                114.
 8           267.                    118.                115.
 9           281.                    118.                116.
10           260.                    119.                117.
# ℹ 66 more rows
# ℹ 10 more variables: Pct_Operable_Utilization <dbl>,
#   US_Conventional_Stocks_Unblended <dbl>, US_Crude_Inventory <dbl>,
#   US_Crude_NI <dbl>, US_Crude_Prod <dbl>, US_Gasoline_Production <dbl>,
#   US_Gasoline_Stocks_Blended <dbl>, US_Petrol_Products_NI <dbl>,
#   US_RBOB_Stocks_Unblended <dbl>, Crack_Spread <dbl>
…
